%YAML 1.1
%TAG !u! tag:unity3d.com,2011:
--- !u!114 &11400000
MonoBehaviour:
  m_ObjectHideFlags: 0
  m_CorrespondingSourceObject: {fileID: 0}
  m_PrefabInstance: {fileID: 0}
  m_PrefabAsset: {fileID: 0}
  m_GameObject: {fileID: 0}
  m_Enabled: 1
  m_EditorHideFlags: 0
  m_Script: {fileID: 11500000, guid: 15b9746d970e4944dbb4e12285bdb328, type: 3}
  m_Name: Level1Player'sBuildingStats
  m_EditorClassIdentifier: 
  newCitizenSpawnTime: 1
  citizenSetOffInterval: 0.5
  startingCitizensCount: 10
  maxCitizensCount: 50
  citizenDamage: 1
